asn.c:376:22:btoi	16	static
asn.c:383:20:GetTime	32	static
asn.c:453:19:GetLength	40	static
asn.c:497:19:GetSequence	32	static
asn.c:514:19:GetSet	32	static
asn.c:532:19:GetMyVersion	32	static
asn.c:579:12:GetExplicitVersion	32	static
asn.c:596:19:GetInt	40	static
asn.c:627:12:GetObjectId	40	static
asn.c:652:19:GetAlgoId	40	static
asn.c:760:5:wc_RsaPrivateKeyDecode	32	static
asn.c:793:5:ToTraditional	32	static
asn.c:1211:5:wc_RsaPublicKeyDecode	32	static
asn.c:1276:5:wc_RsaPublicKeyDecodeRaw	24	static
asn.c:1419:6:InitDecodedCert	24	static
asn.c:1533:6:FreeAltNames	32	static
asn.c:1548:6:FreeNameSubtrees	32	static
asn.c:1563:6:FreeDecodedCert	24	static
asn.c:1593:12:GetCertHeader	72	static
asn.c:1647:12:StoreRsaKey	24	static
asn.c:1673:16:CheckCurve	24	static
asn.c:1708:12:GetKey	32	static
asn.c:1855:12:GetName	72	static
asn.c:2334:12:DateGreaterThan	16	static
asn.c:2364:19:DateLessThan	16	static
asn.c:2372:5:ValidateDate	80	static
asn.c:2430:12:GetDate	64	static
asn.c:2472:12:GetValidity	24	static
asn.c:2493:5:DecodeToKey	24	static
asn.c:2532:12:GetSignature	24	static
asn.c:2557:15:SetDigest	24	static
asn.c:2567:15:BytePrecision	24	static
asn.c:2578:22:SetLength	24	static
asn.c:2597:22:SetSequence	16	static
asn.c:2603:22:SetOctetString	16	static
asn.c:2610:22:SetSet	16	static
asn.c:2616:22:SetImplicit	24	static
asn.c:2624:22:SetExplicit	24	static
asn.c:2728:22:SetAlgoID	56	static
asn.c:2944:8:wc_EncodeSignature	144	static
asn.c:2964:5:wc_GetCTC_HashOID	16	static
asn.c:2998:12:ConfirmSignature	120	static
asn.c:3252:12:MatchBaseName	48	static
asn.c:3315:12:ConfirmNameConstraints	80	static
asn.c:3419:12:DecodeAltNames	80	static
asn.c:3611:12:DecodeBasicCaConstraint	32	static
asn.c:3672:12:DecodeCrlDist	32	static
asn.c:3752:12:DecodeAuthInfo	40	static
asn.c:3797:12:DecodeAuthKeyId	40	static
asn.c:3839:12:DecodeSubjKeyId	40	static
asn.c:3876:12:DecodeKeyUsage	40	static
asn.c:3907:12:DecodeExtKeyUsage	40	static
asn.c:3953:12:DecodeSubtree	48	static
asn.c:4009:12:DecodeNameConstraints	40	static
asn.c:4094:12:DecodeCertExtensions	48	static
asn.c:4266:5:ParseCert	32	static
asn.c:4314:5:ParseCertRelative	96	static
asn.c:4439:9:MakeSigner	24	static
asn.c:4462:6:FreeSigner	32	static
asn.c:4479:6:FreeSignerTable	40	static
asn.c:4495:19:SetMyVersion	32	static
asn.c:4511:19:SetSerialNumber	32	static
asn.c:6532:5:StoreECC_DSA_Sig	64	static
asn.c:6579:5:DecodeECC_DSA_Sig	32	static
asn.c:6600:5:wc_EccPrivateKeyDecode	80	static
asn.c:7508:19:GetNameHash	40	static
