iocon_17xx_40xx.h:237:20:Chip_IOCON_PinMuxSet	24	static
gpio_17xx_40xx.h:88:20:Chip_GPIO_SetPinState	16	static
gpio_17xx_40xx.h:119:20:Chip_GPIO_GetPinState	16	static
gpio_17xx_40xx.h:144:20:Chip_GPIO_SetPinDIROutput	16	static
gpio_17xx_40xx.h:156:20:Chip_GPIO_SetPinDIRInput	16	static
CPT_FT5216.c:48:13:__WriteCPT	16	static
CPT_FT5216.c:52:13:__WriteCPT_reg	24	static
CPT_FT5216.c:59:13:__ReadCPT	16	static
CPT_FT5216.c:64:13:CPT_FT5216_SetDefaultTouchRegister	4	static
CPT_FT5216.c:109:6:CPT_FT5216_Read_DEVICE_MODE	16	static
CPT_FT5216.c:137:6:CPT_FT5216_Read_GEST_ID	16	static
CPT_FT5216.c:161:6:CPT_FT5216_Read_TD_STATUS	16	static
CPT_FT5216.c:180:6:CPT_FT5216_Read_XY1	16	static
CPT_FT5216.c:206:6:CPT_FT5216_Read_XY2	16	static
CPT_FT5216.c:231:6:CPT_FT5216_Read_XY3	16	static
CPT_FT5216.c:256:6:CPT_FT5216_Read_XY4	16	static
CPT_FT5216.c:281:6:CPT_FT5216_Read_XY5	16	static
CPT_FT5216.c:308:6:CPT_FT5216_Read_ID_G_THGROUP	16	static
CPT_FT5216.c:325:6:CPT_FT5216_Read_ID_G_THPEAK	16	static
CPT_FT5216.c:343:6:CPT_FT5216_Read_ID_G_THCAL	16	static
CPT_FT5216.c:361:6:CPT_FT5216_Read_ID_G_THWATER	16	static
CPT_FT5216.c:379:6:CPT_FT5216_Read_ID_G_THDIFF	16	static
CPT_FT5216.c:397:6:CPT_FT5216_Read_ID_G_CTRL	16	static
CPT_FT5216.c:415:6:CPT_FT5216_Read_ID_G_TIME_ENTER_MONITOR	16	static
CPT_FT5216.c:433:6:CPT_FT5216_Read_ID_G_PERIOD_ACTIVE	16	static
CPT_FT5216.c:451:6:CPT_FT5216_Read_ID_G_PERIOD_MONITOR	16	static
CPT_FT5216.c:469:6:CPT_FT5216_Read_ID_G_AUTO_CLB_MODE	16	static
CPT_FT5216.c:488:6:CPT_FT5216_Read_ID_G_LIB_VERSION	16	static
CPT_FT5216.c:506:6:CPT_FT5216_Read_ID_G_VENDOR_ID	16	static
CPT_FT5216.c:523:6:CPT_FT5216_Read_ID_G_MODE	16	static
CPT_FT5216.c:541:6:CPT_FT5216_Read_ID_G_PMODE	16	static
CPT_FT5216.c:559:6:CPT_FT5216_Read_ID_G_FIRMID	16	static
CPT_FT5216.c:577:6:CPT_FT5216_Read_ID_G_STATE	16	static
CPT_FT5216.c:595:6:CPT_FT5216_Read_ID_G_FT5201ID	16	static
CPT_FT5216.c:613:6:CPT_FT5216_Read_ID_G_ERR	16	static
CPT_FT5216.c:631:6:CPT_FT5216_Read_ID_G_CLB	16	static
CPT_FT5216.c:649:6:CPT_FT5216_Read_ID_G_B_AREA_TH	16	static
CPT_FT5216.c:670:6:CPT_FT5216_ReadIDGPeriodMonitor	16	static
CPT_FT5216.c:688:6:CPT_FT5216_ReadIDGCLB	16	static
CPT_FT5216.c:712:6:CPT_FT5216_Set_DeviceMode	24	static
CPT_FT5216.c:717:6:CPT_FT5216_Set_ID_G_THGROUP	24	static
CPT_FT5216.c:722:6:CPT_FT5216_Set_ID_G_THPEAK	24	static
CPT_FT5216.c:727:6:CPT_FT5216_Set_ID_G_THCAL	24	static
CPT_FT5216.c:732:6:CPT_FT5216_Set_ID_G_THWATER	24	static
CPT_FT5216.c:737:6:CPT_FT5216_Set_ID_G_THTEMP	24	static
CPT_FT5216.c:742:6:CPT_FT5216_Set_ID_G_THDIFF	24	static
CPT_FT5216.c:747:6:CPT_FT5216_Set_ID_G_CTRL	24	static
CPT_FT5216.c:752:6:CPT_FT5216_Set_ID_G_TIME_ENTER_MONITOR	24	static
CPT_FT5216.c:757:6:CPT_FT5216_Set_ID_G_PERIOD_ACTIVE	24	static
CPT_FT5216.c:762:6:CPT_FT5216_Set_ID_G_PERIOD_MONITOR	24	static
CPT_FT5216.c:767:6:CPT_FT5216_Set_ID_G_AUTO_CLB_MODE	24	static
CPT_FT5216.c:772:6:CPT_FT5216_Set_ID_G_CLB	16	static
CPT_FT5216.c:784:6:CPT_FT5216_ReadTouch	8	static
CPT_FT5216.c:820:10:CPT_FT526_GetCalibY	4	static
CPT_FT5216.c:823:10:CPT_FT526_GetCalibX	4	static
CPT_FT5216.c:836:6:CPT_FT5216_Config_Defaults	16	static
CPT_FT5216.c:839:6:CPT_FT5216_SetCalib	16	static
CPT_FT5216.c:843:6:CPT_FT5216_SetPointCalib	16	static
CPT_FT5216.c:852:6:CPT_FT5216_Init	8	static
