Calibrate.c:87:6:_print_calibration	160	static
Calibrate.c:184:15:TS_Init_Touch	8	static
Calibrate.c:201:6:TS_Calc_Calibration	168	static
Calibrate.c:250:6:TS_Calc_New_Point_XY	56	static
Calibrate.c:278:6:TS_DrawRectText	32	static
Calibrate.c:321:6:TS_DrawButton	32	static
