dns.c:232:1:dns_init	16	static
dns.c:273:1:dns_setserver	16	static
dns.c:289:1:dns_getserver	16	static
dns.c:303:1:dns_tmr	8	static
dns.c:450:1:dns_lookup	24	static
dns.c:493:1:dns_compare_name	24	static
dns.c:528:1:dns_parse_name	24	static
dns.c:560:1:dns_send	48	static
dns.c:636:1:dns_check_entry	24	static
dns.c:718:1:dns_check_entries	16	static
dns.c:733:1:dns_recv	64	static
dns.c:860:1:dns_enqueue	40	static
dns.c:936:1:dns_gethostbyname	32	static
